# Blender v2.79 (sub 0) OBJ File: ''
# www.blender.org
mtllib lamp.mtl
o Cylinder_Cylinder.001
v 0.000000 -0.038697 -0.550000
v 0.000000 0.061303 -0.550000
v 0.107300 -0.038697 -0.539432
v 0.107300 0.061303 -0.539432
v 0.210476 -0.038697 -0.508134
v 0.210476 0.061303 -0.508134
v 0.305564 -0.038697 -0.457308
v 0.305564 0.061303 -0.457308
v 0.388909 -0.038697 -0.388909
v 0.388909 0.061303 -0.388909
v 0.457308 -0.038697 -0.305564
v 0.457308 0.061303 -0.305564
v 0.508134 -0.038697 -0.210476
v 0.508134 0.061303 -0.210476
v 0.539432 -0.038697 -0.107300
v 0.539432 0.061303 -0.107300
v 0.550000 -0.038697 -0.000000
v 0.550000 0.061303 -0.000000
v 0.539432 -0.038697 0.107300
v 0.539432 0.061303 0.107300
v 0.508134 -0.038697 0.210476
v 0.508134 0.061303 0.210476
v 0.457308 -0.038697 0.305564
v 0.457308 0.061303 0.305564
v 0.388909 -0.038697 0.388909
v 0.388909 0.061303 0.388909
v 0.305564 -0.038697 0.457308
v 0.305564 0.061303 0.457308
v 0.210476 -0.038697 0.508134
v 0.210476 0.061303 0.508134
v 0.107300 -0.038697 0.539432
v 0.107300 0.061303 0.539432
v -0.000000 -0.038697 0.550000
v -0.000000 0.061303 0.550000
v -0.107300 -0.038697 0.539432
v -0.107300 0.061303 0.539432
v -0.210476 -0.038697 0.508134
v -0.210476 0.061303 0.508134
v -0.305564 -0.038697 0.457308
v -0.305564 0.061303 0.457308
v -0.388909 -0.038697 0.388908
v -0.388909 0.061303 0.388908
v -0.457308 -0.038697 0.305563
v -0.457308 0.061303 0.305563
v -0.508134 -0.038697 0.210475
v -0.508134 0.061303 0.210475
v -0.539432 -0.038697 0.107299
v -0.539432 0.061303 0.107299
v -0.550000 -0.038697 -0.000001
v -0.550000 0.061303 -0.000001
v -0.539432 -0.038697 -0.107300
v -0.539432 0.061303 -0.107300
v -0.508133 -0.038697 -0.210476
v -0.508133 0.061303 -0.210476
v -0.457308 -0.038697 -0.305564
v -0.457308 0.061303 -0.305564
v -0.388908 -0.038697 -0.388909
v -0.388908 0.061303 -0.388909
v -0.305563 -0.038697 -0.457309
v -0.305563 0.061303 -0.457309
v -0.210475 -0.038697 -0.508134
v -0.210475 0.061303 -0.508134
v -0.107299 -0.038697 -0.539432
v -0.107299 0.061303 -0.539432
vt 0.554685 0.000000
vt 0.595482 0.334407
vt 0.554685 0.334407
vt 0.595482 0.000000
vt 0.635494 0.334407
vt 0.635494 0.000000
vt 0.673185 0.334407
vt 0.673185 0.000000
vt 0.707106 0.334407
vt 0.707106 0.000000
vt 0.735954 0.334407
vt 0.264046 1.000000
vt 0.230125 0.665593
vt 0.264046 0.665593
vt 0.230125 1.000000
vt 0.192434 0.665593
vt 0.192434 1.000000
vt 0.152421 0.665593
vt 0.152421 1.000000
vt 0.111625 0.665593
vt 0.111625 1.000000
vt 0.071612 0.665593
vt 0.071612 1.000000
vt 0.033921 0.665593
vt 0.033921 1.000000
vt 0.000000 0.665593
vt 0.414213 0.334407
vt 0.448135 0.668814
vt 0.414214 0.668814
vt 0.448134 0.334407
vt 0.485826 0.668814
vt 0.485826 0.334407
vt 0.525838 0.668814
vt 0.525838 0.334407
vt 0.566635 0.668814
vt 0.566635 0.334407
vt 0.606647 0.668814
vt 0.606647 0.334407
vt 0.644338 0.668814
vt 0.644338 0.334407
vt 0.678259 0.668814
vt 0.678259 0.334407
vt 0.707107 0.668814
vt 0.707107 0.334407
vt 0.741028 0.668814
vt 0.741028 0.334407
vt 0.778719 0.668814
vt 0.778719 0.334407
vt 0.818731 0.668814
vt 0.818731 0.334407
vt 0.859528 0.668814
vt 0.859528 0.334407
vt 0.899541 0.668814
vt 0.899540 0.334407
vt 0.937232 0.668814
vt 0.937232 0.334407
vt 0.971153 0.668814
vt 0.971153 0.334407
vt 1.000000 0.668814
vt 0.414213 0.000000
vt 0.443061 0.334407
vt 0.414214 0.334407
vt 0.443061 0.000000
vt 0.476982 0.334407
vt 0.046236 0.060326
vt 0.339130 0.037148
vt 0.367977 0.272471
vt 0.476982 0.000000
vt 0.514673 0.334407
vt 0.514673 0.000000
vt 0.146696 0.339191
vt 0.390642 0.578014
vt 0.267517 0.659199
vt 0.735954 0.000000
vt 0.000000 1.000000
vt 1.000000 0.334407
vt 0.339130 0.295648
vt 0.305209 0.313859
vt 0.267518 0.326402
vt 0.227505 0.332797
vt 0.186709 0.332797
vt 0.075084 0.295648
vt 0.146696 0.326402
vt 0.109005 0.313859
vt 0.046237 0.272471
vt 0.023571 0.245218
vt 0.007959 0.214935
vt 0.000000 0.182787
vt 0.000000 0.150010
vt 0.007959 0.117862
vt 0.023571 0.087579
vt 0.075084 0.037148
vt 0.109005 0.018938
vt 0.146696 0.006395
vt 0.186708 0.000000
vt 0.227505 0.000000
vt 0.267518 0.006395
vt 0.305209 0.018938
vt 0.367977 0.060326
vt 0.390642 0.087579
vt 0.406254 0.117862
vt 0.414213 0.150009
vt 0.414213 0.182787
vt 0.406254 0.214935
vt 0.390642 0.245217
vt 0.227505 0.665593
vt 0.186709 0.665593
vt 0.146696 0.659199
vt 0.109005 0.646655
vt 0.075084 0.628445
vt 0.046237 0.605268
vt 0.023571 0.578014
vt 0.007959 0.547732
vt 0.000000 0.515584
vt 0.000000 0.482806
vt 0.007959 0.450658
vt 0.023571 0.420376
vt 0.046236 0.393122
vt 0.075084 0.369945
vt 0.109005 0.351735
vt 0.186708 0.332797
vt 0.227505 0.332797
vt 0.267517 0.339191
vt 0.305208 0.351735
vt 0.339130 0.369945
vt 0.406254 0.450658
vt 0.367977 0.393122
vt 0.390642 0.420376
vt 0.414213 0.482806
vt 0.414213 0.515584
vt 0.406254 0.547731
vt 0.367977 0.605268
vt 0.339129 0.628445
vt 0.305208 0.646655
vn 0.0980 0.0000 -0.9952
vn 0.2903 0.0000 -0.9569
vn 0.4714 0.0000 -0.8819
vn 0.6344 0.0000 -0.7730
vn 0.7730 0.0000 -0.6344
vn 0.8819 0.0000 -0.4714
vn 0.9569 0.0000 -0.2903
vn 0.9952 0.0000 -0.0980
vn 0.9952 0.0000 0.0980
vn 0.9569 0.0000 0.2903
vn 0.8819 0.0000 0.4714
vn 0.7730 0.0000 0.6344
vn 0.6344 0.0000 0.7730
vn 0.4714 0.0000 0.8819
vn 0.2903 0.0000 0.9569
vn 0.0980 0.0000 0.9952
vn -0.0980 0.0000 0.9952
vn -0.2903 0.0000 0.9569
vn -0.4714 0.0000 0.8819
vn -0.6344 0.0000 0.7730
vn -0.7730 0.0000 0.6344
vn -0.8819 0.0000 0.4714
vn -0.9569 0.0000 0.2903
vn -0.9952 0.0000 0.0980
vn -0.9952 0.0000 -0.0980
vn -0.9569 0.0000 -0.2903
vn -0.8819 0.0000 -0.4714
vn -0.7730 0.0000 -0.6344
vn -0.6344 0.0000 -0.7730
vn -0.4714 0.0000 -0.8819
vn 0.0000 1.0000 0.0000
vn -0.2903 0.0000 -0.9569
vn -0.0980 0.0000 -0.9952
vn 0.0000 -1.0000 0.0000
usemtl None
s off
f 2/1/1 3/2/1 1/3/1
f 4/4/2 5/5/2 3/2/2
f 6/6/3 7/7/3 5/5/3
f 8/8/4 9/9/4 7/7/4
f 10/10/5 11/11/5 9/9/5
f 12/12/6 13/13/6 11/14/6
f 14/15/7 15/16/7 13/13/7
f 16/17/8 17/18/8 15/16/8
f 18/19/9 19/20/9 17/18/9
f 20/21/10 21/22/10 19/20/10
f 22/23/11 23/24/11 21/22/11
f 24/25/12 25/26/12 23/24/12
f 26/27/13 27/28/13 25/29/13
f 28/30/14 29/31/14 27/28/14
f 30/32/15 31/33/15 29/31/15
f 32/34/16 33/35/16 31/33/16
f 34/36/17 35/37/17 33/35/17
f 36/38/18 37/39/18 35/37/18
f 38/40/19 39/41/19 37/39/19
f 40/42/20 41/43/20 39/41/20
f 42/44/21 43/45/21 41/43/21
f 44/46/22 45/47/22 43/45/22
f 46/48/23 47/49/23 45/47/23
f 48/50/24 49/51/24 47/49/24
f 50/52/25 51/53/25 49/51/25
f 52/54/26 53/55/26 51/53/26
f 54/56/27 55/57/27 53/55/27
f 56/58/28 57/59/28 55/57/28
f 58/60/29 59/61/29 57/62/29
f 60/63/30 61/64/30 59/61/30
f 38/65/31 22/66/31 6/67/31
f 62/68/32 63/69/32 61/64/32
f 64/70/33 1/3/33 63/69/33
f 31/71/34 55/72/34 63/73/34
f 2/1/1 4/4/1 3/2/1
f 4/4/2 6/6/2 5/5/2
f 6/6/3 8/8/3 7/7/3
f 8/8/4 10/10/4 9/9/4
f 10/10/5 12/74/5 11/11/5
f 12/12/6 14/15/6 13/13/6
f 14/15/7 16/17/7 15/16/7
f 16/17/8 18/19/8 17/18/8
f 18/19/9 20/21/9 19/20/9
f 20/21/10 22/23/10 21/22/10
f 22/23/11 24/25/11 23/24/11
f 24/25/12 26/75/12 25/26/12
f 26/27/13 28/30/13 27/28/13
f 28/30/14 30/32/14 29/31/14
f 30/32/15 32/34/15 31/33/15
f 32/34/16 34/36/16 33/35/16
f 34/36/17 36/38/17 35/37/17
f 36/38/18 38/40/18 37/39/18
f 38/40/19 40/42/19 39/41/19
f 40/42/20 42/44/20 41/43/20
f 42/44/21 44/46/21 43/45/21
f 44/46/22 46/48/22 45/47/22
f 46/48/23 48/50/23 47/49/23
f 48/50/24 50/52/24 49/51/24
f 50/52/25 52/54/25 51/53/25
f 52/54/26 54/56/26 53/55/26
f 54/56/27 56/58/27 55/57/27
f 56/58/28 58/76/28 57/59/28
f 58/60/29 60/63/29 59/61/29
f 60/63/30 62/68/30 61/64/30
f 6/67/31 4/77/31 2/78/31
f 2/78/31 64/79/31 6/67/31
f 62/80/31 60/81/31 54/82/31
f 58/83/31 56/84/31 54/82/31
f 54/82/31 52/85/31 50/86/31
f 50/86/31 48/87/31 54/82/31
f 46/88/31 44/89/31 42/90/31
f 42/90/31 40/91/31 38/65/31
f 38/65/31 36/92/31 34/93/31
f 34/93/31 32/94/31 38/65/31
f 30/95/31 28/96/31 26/97/31
f 26/97/31 24/98/31 22/66/31
f 22/66/31 20/99/31 18/100/31
f 18/100/31 16/101/31 14/102/31
f 14/102/31 12/103/31 10/104/31
f 10/104/31 8/105/31 6/67/31
f 6/67/31 64/79/31 62/80/31
f 60/81/31 58/83/31 54/82/31
f 54/82/31 48/87/31 46/88/31
f 46/88/31 42/90/31 38/65/31
f 38/65/31 32/94/31 30/95/31
f 30/95/31 26/97/31 38/65/31
f 22/66/31 18/100/31 14/102/31
f 14/102/31 10/104/31 22/66/31
f 6/67/31 62/80/31 54/82/31
f 54/82/31 46/88/31 38/65/31
f 38/65/31 26/97/31 22/66/31
f 22/66/31 10/104/31 6/67/31
f 6/67/31 54/82/31 38/65/31
f 62/68/32 64/70/32 63/69/32
f 64/70/33 2/1/33 1/3/33
f 63/73/34 1/106/34 3/107/34
f 3/107/34 5/108/34 7/109/34
f 7/109/34 9/110/34 11/111/34
f 11/111/34 13/112/34 15/113/34
f 15/113/34 17/114/34 19/115/34
f 19/115/34 21/116/34 15/113/34
f 23/117/34 25/118/34 31/71/34
f 27/119/34 29/120/34 31/71/34
f 31/71/34 33/121/34 35/122/34
f 35/122/34 37/123/34 39/124/34
f 39/124/34 41/125/34 47/126/34
f 43/127/34 45/128/34 47/126/34
f 47/126/34 49/129/34 51/130/34
f 51/130/34 53/131/34 55/72/34
f 55/72/34 57/132/34 59/133/34
f 59/133/34 61/134/34 63/73/34
f 63/73/34 3/107/34 7/109/34
f 7/109/34 11/111/34 63/73/34
f 15/113/34 21/116/34 23/117/34
f 25/118/34 27/119/34 31/71/34
f 31/71/34 35/122/34 39/124/34
f 41/125/34 43/127/34 47/126/34
f 47/126/34 51/130/34 55/72/34
f 55/72/34 59/133/34 63/73/34
f 63/73/34 11/111/34 15/113/34
f 15/113/34 23/117/34 63/73/34
f 31/71/34 39/124/34 47/126/34
f 47/126/34 55/72/34 31/71/34
f 63/73/34 23/117/34 31/71/34
o Cylinder.001_Cylinder.002
v 0.000000 -0.070000 -0.500000
v 0.000000 0.030000 -0.500000
v 0.097545 -0.070000 -0.490393
v 0.097545 0.030000 -0.490393
v 0.191342 -0.070000 -0.461940
v 0.191342 0.030000 -0.461940
v 0.277785 -0.070000 -0.415735
v 0.277785 0.030000 -0.415735
v 0.353553 -0.070000 -0.353553
v 0.353553 0.030000 -0.353553
v 0.415735 -0.070000 -0.277785
v 0.415735 0.030000 -0.277785
v 0.461940 -0.070000 -0.191342
v 0.461940 0.030000 -0.191342
v 0.490393 -0.070000 -0.097545
v 0.490393 0.030000 -0.097545
v 0.500000 -0.070000 -0.000000
v 0.500000 0.030000 -0.000000
v 0.490393 -0.070000 0.097545
v 0.490393 0.030000 0.097545
v 0.461940 -0.070000 0.191342
v 0.461940 0.030000 0.191342
v 0.415735 -0.070000 0.277785
v 0.415735 0.030000 0.277785
v 0.353553 -0.070000 0.353553
v 0.353553 0.030000 0.353553
v 0.277785 -0.070000 0.415735
v 0.277785 0.030000 0.415735
v 0.191342 -0.070000 0.461940
v 0.191342 0.030000 0.461940
v 0.097545 -0.070000 0.490393
v 0.097545 0.030000 0.490393
v -0.000000 -0.070000 0.500000
v -0.000000 0.030000 0.500000
v -0.097545 -0.070000 0.490393
v -0.097545 0.030000 0.490393
v -0.191342 -0.070000 0.461940
v -0.191342 0.030000 0.461940
v -0.277785 -0.070000 0.415735
v -0.277785 0.030000 0.415735
v -0.353554 -0.070000 0.353553
v -0.353554 0.030000 0.353553
v -0.415735 -0.070000 0.277785
v -0.415735 0.030000 0.277785
v -0.461940 -0.070000 0.191341
v -0.461940 0.030000 0.191341
v -0.490393 -0.070000 0.097545
v -0.490393 0.030000 0.097545
v -0.500000 -0.070000 -0.000000
v -0.500000 0.030000 -0.000000
v -0.490393 -0.070000 -0.097546
v -0.490393 0.030000 -0.097546
v -0.461940 -0.070000 -0.191342
v -0.461940 0.030000 -0.191342
v -0.415734 -0.070000 -0.277786
v -0.415734 0.030000 -0.277786
v -0.353553 -0.070000 -0.353554
v -0.353553 0.030000 -0.353554
v -0.277785 -0.070000 -0.415735
v -0.277785 0.030000 -0.415735
v -0.191341 -0.070000 -0.461940
v -0.191341 0.030000 -0.461940
v -0.097544 -0.070000 -0.490393
v -0.097544 0.030000 -0.490393
vt 0.595482 0.334407
vt 0.554685 0.000000
vt 0.595482 0.000000
vt 0.554686 0.334407
vt 0.514673 0.000000
vt 0.514673 0.334407
vt 0.476982 0.000000
vt 0.476982 0.334407
vt 0.443061 0.000000
vt 0.443061 0.334407
vt 0.414213 0.000000
vt 0.264046 1.000000
vt 0.230125 0.665593
vt 0.264046 0.665593
vt 0.230125 1.000000
vt 0.192434 0.665593
vt 0.192434 1.000000
vt 0.152421 0.665593
vt 0.152421 1.000000
vt 0.111625 0.665593
vt 0.111625 1.000000
vt 0.071612 0.665593
vt 0.071612 1.000000
vt 0.033921 0.665593
vt 0.033921 1.000000
vt 0.000000 0.665593
vt 0.414213 0.334407
vt 0.448134 0.668814
vt 0.414213 0.668814
vt 0.448134 0.334407
vt 0.485826 0.668814
vt 0.485825 0.334407
vt 0.525838 0.668814
vt 0.525838 0.334407
vt 0.566635 0.668814
vt 0.566635 0.334407
vt 0.606647 0.668814
vt 0.606647 0.334407
vt 0.644338 0.668814
vt 0.644338 0.334407
vt 0.678259 0.668814
vt 0.678259 0.334407
vt 0.707107 0.668814
vt 0.707107 0.334407
vt 0.741028 0.668814
vt 0.741028 0.334407
vt 0.778719 0.668814
vt 0.778719 0.334407
vt 0.818731 0.668814
vt 0.818731 0.334407
vt 0.859528 0.668814
vt 0.859528 0.334407
vt 0.899540 0.668814
vt 0.899540 0.334407
vt 0.937231 0.668814
vt 0.937231 0.334407
vt 0.971153 0.668814
vt 0.971152 0.334407
vt 1.000000 0.668814
vt 0.735954 0.334407
vt 0.707106 0.000000
vt 0.735954 0.000000
vt 0.707106 0.334407
vt 0.673185 0.000000
vt 0.339130 0.369945
vt 0.414213 0.482806
vt 0.227505 0.665593
vt 0.673185 0.334407
vt 0.635494 0.000000
vt 0.635494 0.334407
vt 0.406254 0.117862
vt 0.267517 0.326402
vt 0.146696 0.006395
vt 0.414213 0.334407
vt 0.000000 1.000000
vt 1.000000 0.334407
vt 0.186708 0.665593
vt 0.146696 0.659199
vt 0.109005 0.646655
vt 0.075084 0.628445
vt 0.046237 0.605268
vt 0.023571 0.578014
vt 0.007959 0.547732
vt 0.000000 0.515584
vt 0.000000 0.482806
vt 0.007959 0.450658
vt 0.023571 0.420376
vt 0.046236 0.393122
vt 0.075084 0.369945
vt 0.186708 0.332797
vt 0.109005 0.351735
vt 0.146696 0.339191
vt 0.227505 0.332797
vt 0.267517 0.339191
vt 0.305209 0.351735
vt 0.367977 0.393122
vt 0.390642 0.420376
vt 0.406254 0.450658
vt 0.414213 0.515584
vt 0.406254 0.547731
vt 0.390642 0.578014
vt 0.367977 0.605268
vt 0.339130 0.628445
vt 0.305209 0.646655
vt 0.267518 0.659199
vt 0.007959 0.214935
vt 0.000000 0.182787
vt 0.000000 0.150010
vt 0.007959 0.117862
vt 0.023571 0.087579
vt 0.046236 0.060326
vt 0.075084 0.037148
vt 0.109005 0.018938
vt 0.186708 0.000000
vt 0.227505 0.000000
vt 0.267517 0.006395
vt 0.305208 0.018938
vt 0.339129 0.037148
vt 0.367977 0.060326
vt 0.390642 0.087579
vt 0.414213 0.150009
vt 0.414213 0.182787
vt 0.406254 0.214935
vt 0.390642 0.245217
vt 0.367977 0.272471
vt 0.339129 0.295648
vt 0.305208 0.313859
vt 0.227505 0.332797
vt 0.186708 0.332797
vt 0.146696 0.326402
vt 0.109005 0.313858
vt 0.075084 0.295648
vt 0.046236 0.272471
vt 0.023571 0.245217
vn 0.0980 0.0000 -0.9952
vn 0.2903 0.0000 -0.9569
vn 0.4714 0.0000 -0.8819
vn 0.6344 0.0000 -0.7730
vn 0.7730 0.0000 -0.6344
vn 0.8819 0.0000 -0.4714
vn 0.9569 0.0000 -0.2903
vn 0.9952 0.0000 -0.0980
vn 0.9952 0.0000 0.0980
vn 0.9569 0.0000 0.2903
vn 0.8819 0.0000 0.4714
vn 0.7730 0.0000 0.6344
vn 0.6344 0.0000 0.7730
vn 0.4714 0.0000 0.8819
vn 0.2903 0.0000 0.9569
vn 0.0980 0.0000 0.9952
vn -0.0980 0.0000 0.9952
vn -0.2903 0.0000 0.9569
vn -0.4714 0.0000 0.8819
vn -0.6344 0.0000 0.7730
vn -0.7730 0.0000 0.6344
vn -0.8819 0.0000 0.4714
vn -0.9569 0.0000 0.2903
vn -0.9952 0.0000 0.0980
vn -0.9952 0.0000 -0.0980
vn -0.9569 0.0000 -0.2903
vn -0.8819 0.0000 -0.4714
vn -0.7730 0.0000 -0.6344
vn -0.6344 0.0000 -0.7730
vn -0.4714 0.0000 -0.8819
vn 0.0000 1.0000 0.0000
vn -0.2903 0.0000 -0.9569
vn -0.0980 0.0000 -0.9952
vn 0.0000 -1.0000 0.0000
usemtl None_blanc.png.002
s off
f 66/135/35 67/136/35 65/137/35
f 68/138/36 69/139/36 67/136/36
f 70/140/37 71/141/37 69/139/37
f 72/142/38 73/143/38 71/141/38
f 74/144/39 75/145/39 73/143/39
f 76/146/40 77/147/40 75/148/40
f 78/149/41 79/150/41 77/147/41
f 80/151/42 81/152/42 79/150/42
f 82/153/43 83/154/43 81/152/43
f 84/155/44 85/156/44 83/154/44
f 86/157/45 87/158/45 85/156/45
f 88/159/46 89/160/46 87/158/46
f 90/161/47 91/162/47 89/163/47
f 92/164/48 93/165/48 91/162/48
f 94/166/49 95/167/49 93/165/49
f 96/168/50 97/169/50 95/167/50
f 98/170/51 99/171/51 97/169/51
f 100/172/52 101/173/52 99/171/52
f 102/174/53 103/175/53 101/173/53
f 104/176/54 105/177/54 103/175/54
f 106/178/55 107/179/55 105/177/55
f 108/180/56 109/181/56 107/179/56
f 110/182/57 111/183/57 109/181/57
f 112/184/58 113/185/58 111/183/58
f 114/186/59 115/187/59 113/185/59
f 116/188/60 117/189/60 115/187/60
f 118/190/61 119/191/61 117/189/61
f 120/192/62 121/193/62 119/191/62
f 122/194/63 123/195/63 121/196/63
f 124/197/64 125/198/64 123/195/64
f 94/199/65 86/200/65 70/201/65
f 126/202/66 127/203/66 125/198/66
f 128/204/67 65/137/67 127/203/67
f 95/205/68 111/206/68 79/207/68
f 66/135/35 68/138/35 67/136/35
f 68/138/36 70/140/36 69/139/36
f 70/140/37 72/142/37 71/141/37
f 72/142/38 74/144/38 73/143/38
f 74/144/39 76/208/39 75/145/39
f 76/146/40 78/149/40 77/147/40
f 78/149/41 80/151/41 79/150/41
f 80/151/42 82/153/42 81/152/42
f 82/153/43 84/155/43 83/154/43
f 84/155/44 86/157/44 85/156/44
f 86/157/45 88/159/45 87/158/45
f 88/159/46 90/209/46 89/160/46
f 90/161/47 92/164/47 91/162/47
f 92/164/48 94/166/48 93/165/48
f 94/166/49 96/168/49 95/167/49
f 96/168/50 98/170/50 97/169/50
f 98/170/51 100/172/51 99/171/51
f 100/172/52 102/174/52 101/173/52
f 102/174/53 104/176/53 103/175/53
f 104/176/54 106/178/54 105/177/54
f 106/178/55 108/180/55 107/179/55
f 108/180/56 110/182/56 109/181/56
f 110/182/57 112/184/57 111/183/57
f 112/184/58 114/186/58 113/185/58
f 114/186/59 116/188/59 115/187/59
f 116/188/60 118/190/60 117/189/60
f 118/190/61 120/192/61 119/191/61
f 120/192/62 122/210/62 121/193/62
f 122/194/63 124/197/63 123/195/63
f 124/197/64 126/202/64 125/198/64
f 70/201/65 68/211/65 66/212/65
f 66/212/65 128/213/65 70/201/65
f 126/214/65 124/215/65 122/216/65
f 122/216/65 120/217/65 118/218/65
f 118/218/65 116/219/65 114/220/65
f 114/220/65 112/221/65 118/218/65
f 110/222/65 108/223/65 102/224/65
f 106/225/65 104/226/65 102/224/65
f 102/224/65 100/227/65 98/228/65
f 98/228/65 96/229/65 102/224/65
f 94/199/65 92/230/65 86/200/65
f 90/231/65 88/232/65 86/200/65
f 86/200/65 84/233/65 82/234/65
f 82/234/65 80/235/65 78/236/65
f 78/236/65 76/237/65 74/238/65
f 74/238/65 72/239/65 70/201/65
f 70/201/65 128/213/65 126/214/65
f 126/214/65 122/216/65 118/218/65
f 118/218/65 112/221/65 110/222/65
f 108/223/65 106/225/65 102/224/65
f 102/224/65 96/229/65 94/199/65
f 92/230/65 90/231/65 86/200/65
f 86/200/65 82/234/65 78/236/65
f 78/236/65 74/238/65 86/200/65
f 70/201/65 126/214/65 118/218/65
f 118/218/65 110/222/65 102/224/65
f 102/224/65 94/199/65 70/201/65
f 86/200/65 74/238/65 70/201/65
f 70/201/65 118/218/65 102/224/65
f 126/202/66 128/204/66 127/203/66
f 128/204/67 66/135/67 65/137/67
f 127/240/68 65/241/68 67/242/68
f 67/242/68 69/243/68 71/244/68
f 71/244/68 73/245/68 75/246/68
f 75/246/68 77/247/68 71/244/68
f 79/207/68 81/248/68 83/249/68
f 83/249/68 85/250/68 79/207/68
f 87/251/68 89/252/68 95/205/68
f 91/253/68 93/254/68 95/205/68
f 95/205/68 97/255/68 99/256/68
f 99/256/68 101/257/68 103/258/68
f 103/258/68 105/259/68 107/260/68
f 107/260/68 109/261/68 111/206/68
f 111/206/68 113/262/68 115/263/68
f 115/263/68 117/264/68 119/265/68
f 119/265/68 121/266/68 127/240/68
f 123/267/68 125/268/68 127/240/68
f 127/240/68 67/242/68 79/207/68
f 71/244/68 77/247/68 79/207/68
f 79/207/68 85/250/68 87/251/68
f 89/252/68 91/253/68 95/205/68
f 95/205/68 99/256/68 111/206/68
f 103/258/68 107/260/68 111/206/68
f 111/206/68 115/263/68 127/240/68
f 121/266/68 123/267/68 127/240/68
f 67/242/68 71/244/68 79/207/68
f 79/207/68 87/251/68 95/205/68
f 99/256/68 103/258/68 111/206/68
f 115/263/68 119/265/68 127/240/68
f 127/240/68 79/207/68 111/206/68
